POLNO|CERTNO|DEPT_NAME|GP_TYPE|BUSI_SRC_TYPE|APP_NAME|INSNAME|APP_DATE|EFF_DATE|MATU_DATE|PREM_TYPE|CONTA_NAME|CONTA_TEL|AGT_CODE|AGENTNO|FACUL_FLAG|CEDE_FLAG|

0000000101|0000000101|110000|G|1|中央电视台新闻中心新闻采访部|黄玮|2005-05-16|2005-04-19|2005-06-18|5|冯雅丹|13801045256||1102000001|N|N|

0000000301|0000000301|110000|G|1|东信集团|龚新宇|2005-07-18|2005-05-01|2005-12-31|5|李潇|63035249||1102000003|N|N|

00000003601|00000003601|110000|P|1|董雨||2005-04-30|2005-05-18||5|董雨|||1101000001|N|N|

0000000701|0000000701|110000|G|1|北京迪索京工广告有限公司|鲁  凡|2005-04-30|2005-05-01|2006-04-30|5|郇丽|13910001909||1102000003|N|N|

0000000801|0000000801|110000|G|5|北京天鸿集团公司|龚雪|2005-07-08|2005-05-01|2005-12-31|5|崔景松|64059759|PI1100000001|1102000003|N|N|

0000009401|0000009401|110000|G|1|蒙牛乳液|隋振强|2005-07-20|2005-05-01|2005-12-31|1|久久1|65412255||1102000003|N|N|

0000009601|0000009601|110000|G|1|商业银行|隋振|2005-07-13|2005-01-02|2007-01-01|1|李强|64587911||1102000002|N|N|

0000009701|0000009701|110000|G|1|mimi|隋振强|2005-07-13|2005-01-01|2005-12-31|1|强强|111||1102000003|N|N|

0000009801|0000009801|110000|G|1|天天渔港|隋振强|2005-07-22|2005-07-01|2005-12-31|1|uubs|99998888||1102000003|N|N|

0000009901|0000009901|110000|G|1|家家|隋振强|2005-07-30|2005-07-30|2006-07-29|5|111|111||1102000001|N|N|

0000010001|0000010001|110000|G|3|潇潇组织|隋振强|2005-08-01|2005-08-01|2006-07-31|1|111|111|011100000001|1102000003|N|N|

00001097901|00001097901|110000|P|1|核保保1|核保保4|2005-07-12|2005-05-28||5|核保保1|||1101000001|N|N|

00001098001|00001098001|110000|P|1|核保保|核保保|2005-07-23|2005-01-01||5|核保保|||1101000001|N|N|

00001138301|00001138301|110000|P|1|自核|自核|2005-07-23|2005-01-01||5|自核|||1101000001|N|N|

00001138501|00001138501|110000|P|1|薛飞|薛飞|2005-07-25|2005-01-01||5|薛飞|||1101000001|N|N|

00001138701|00001138701|110000|P|1|测试1|测试1|2005-07-30|2005-07-01||5|测试1|||1101000001|N|N|

